<svg xmlns="http://www.w3.org/2000/svg" width="19.914" height="19.914" viewBox="0 0 19.914 19.914">
  <path id="Icon_ionic-logo-linkedin" data-name="Icon ionic-logo-linkedin" d="M22.821,4.5H6.2A1.625,1.625,0,0,0,4.5,6.051V22.707a1.752,1.752,0,0,0,1.7,1.707H22.816a1.663,1.663,0,0,0,1.6-1.707V6.051A1.527,1.527,0,0,0,22.821,4.5ZM10.673,21.1H7.82v-8.87h2.853ZM9.345,10.88H9.324a1.464,1.464,0,0,1-1.5-1.53A1.473,1.473,0,0,1,9.36,7.82a1.469,1.469,0,0,1,1.525,1.53A1.473,1.473,0,0,1,9.345,10.88ZM21.1,21.1H18.246v-4.85c0-1.162-.415-1.956-1.447-1.956a1.561,1.561,0,0,0-1.463,1.053,1.921,1.921,0,0,0-.1.7V21.1H12.385v-8.87h2.853v1.235a2.888,2.888,0,0,1,2.573-1.442c1.873,0,3.289,1.235,3.289,3.9V21.1Z" transform="translate(-4.5 -4.5)" fill="#fff"/>
</svg>
